{
  "apps" : [{
    "name"        : "NeoPi",
    "cwd"         : "/home/pi/Development/ah-neopi/",
    "script"      : "./node_modules/.bin/actionhero",
    "args"        : "start",
    "watch"       : false,
    "ignore_watch": [ "data", "documents", "locales", "log", "node_modules", "pids", "public", "test" ],
    "max_memory_restart": "180M"
  }]
}
